{
	"logToFile": true,
	"frontendPath": "/frontend/dist/",
	"homepageFile": "index.html",
	"httpPort": 80,
	"httpsPort": 443,
	"streamerPort": 8888,
	"enableAfkShutdown": false,
	"enableDisconnectShutdown:": false,
	"afkShutdownDuration": 600,
	"disconnectShutdownDuration": 600,
	"appPath": "C:/Users/Administrator/Desktop/PixelApp",
	"appName": "ProjectAila"
}